{
	"entries": [{
		"lead_id": "lead-1002",
		"first_name": "lead",
		"last_name": "led001",
		"company_name": "GroupFIo",
		"parent_co_details": "",
		"Salutation": "Mr",
		"sales_turnover": "",
		"date_of_incorporation": "",
		"constitution": "",
		"industry_cat": "",
		"industry": "",
		"Import / Export Customer": "",
		"tally_user_type": "",
		"source": "TCP",
		"tcp_name": "BE SOLUTIONS_BLR",
		"key_contact_person1": "",
		"key_contact_person2": "",
		"phone_number1_country_code": "",
		"phone_number1": "1817632263",
		"phone_number2_country_code": "",
		"phone_number2": "",
		"Company Address": "",
		"city": "Galena",
		"state": "AK",
		"email_address": "lead01@gmail.com",
		"permanent_acccount_number": "",
		"business_reg_no": "",
		"Other Banks": "",
		"Total Cash Balances Maintained With Other Banks": "",
		"Current Product(s) Held With Other Bank": "",
		"Product Value with other banks": "",
		"paidup_capital": "",
		"authorised_cap": "",
		"Lead Assigned To": "",
		"Lead Assigned By": "",
		"segment": "IBG_4",
		"Asset / Liability Lead": "LIAB",
		"Telecaller Status": "",
		"Telecaller sub status": "",
		"Telecaller Remarks": "",
		"RM Call Status": "",
		"RM Call Sub Status": "",
		"RM Remarks": "",
		"no_of_attempt": "",
		"finacle_id": "",
		"place_of_incorporation": "",
		"no_of_employees": "",
		"job_family": "",
		"designation": "",
		"PIN Code": "",
		"lead_status": "",
		"phone_number1_dnd_status": "",
		"phone_number2_dnd_status": "",
		"lead_score": ""
	}
	]
}